{
    "KPlugin": {
        "BugReportUrl": "https://bugs.kde.org/enter_bug.cgi?product=systemsettings&component=kcm_joystick",
        "Description": "Test and Configure Game Controllers",
        "Description[ar]": "تختبر وتضبط متحكم الألعاب",
        "Description[az]": "Oyun kontrollerlərinin yoxlanılması və tənzimlənməsi",
        "Description[be]": "Правяранне і наладжванне гульнявых кантролераў",
        "Description[bg]": "Тестване и конфигуриране на контролера за игри",
        "Description[ca@valencia]": "Prova i configuració dels controladors de jocs",
        "Description[ca]": "Prova i configuració dels controladors de jocs",
        "Description[cs]": "Otestovat a nastavit herní ovladače",
        "Description[da]": "Test og konfigurér spilcontrollere",
        "Description[de]": "Gamecontroller testen und einrichten",
        "Description[el]": "Δοκιμή και διαμόρφωση χειριστηρίων παιχνιδιών",
        "Description[en_GB]": "Test and Configure Game Controllers",
        "Description[eo]": "Testi kaj Agordi Ludstirilojn",
        "Description[es]": "Probar y configurar mandos de juego",
        "Description[eu]": "Probatu eta konfiguratu joko-kontrolagailuak",
        "Description[fi]": "Kokeile ja aseta peliohjaimia",
        "Description[fr]": "Tester et configurer les manettes de jeu",
        "Description[gl]": "Probar e configurar mandos",
        "Description[he]": "בדיקת והגדרת בקרי משחק",
        "Description[hu]": "Játékvezérlők tesztelése és beállítása",
        "Description[ia]": "Essaya e Configura Controlatores de Joco",
        "Description[id]": "Uji dan Konfigurasi Kontroler Game",
        "Description[is]": "Prófa og grunnstilla leikjastýringar",
        "Description[it]": "Prova e configura i controller di gioco",
        "Description[ja]": "ゲームコントローラをテスト/設定",
        "Description[ka]": "დატესტეთ და მოირგეთ თამაშის კონტროლერები",
        "Description[ko]": "게임 컨트롤러 시험 및 설정",
        "Description[lt]": "Išbandyti ir konfigūruoti žaidimų valdiklius",
        "Description[lv]": "Testēt un konfigurēt spēļu kontrolierus",
        "Description[nl]": "Spelcontrollers testen en configureren",
        "Description[nn]": "Test og set opp spelkontrollarar",
        "Description[pa]": "ਖੇਡ ਕੰਟਰੋਲਰਾਂ ਨੂੰ ਟੈਸਟ ਅਤੇ ਸੰਰਚਿਤ ਕਰੋ",
        "Description[pl]": "Wypróbuj i ustaw pady do gier",
        "Description[pt_BR]": "Testar e configurar controladores de jogos",
        "Description[ro]": "Testează și configurează controlor pentru jocuri",
        "Description[ru]": "Проверка и калибровка игровых контроллеров",
        "Description[sk]": "Testovanie a konfigurácia herných ovládačov",
        "Description[sl]": "Preveri in konfiguriraj krmilnike iger",
        "Description[sv]": "Testa och anpassa spelkontroller",
        "Description[ta]": "விளையாட்டு கட்டுப்படுத்திகளை சீரமைத்து சோதிக்கலாம்",
        "Description[tr]": "Oyun Kumandasını Kalibre Et",
        "Description[uk]": "Тестування та налаштовування ігрових контролерів",
        "Description[x-test]": "xxTest and Configure Game Controllersxx",
        "Description[zh_CN]": "测试和配置游戏控制器",
        "Description[zh_TW]": "測試及設定遊戲控制器",
        "Icon": "preferences-desktop-gaming",
        "Name": "Game Controller",
        "Name[ar]": "متحكم الألعاب",
        "Name[az]": "Oyun Kontrolleri",
        "Name[be]": "Гульнявы кантролер",
        "Name[bg]": "Контролер за игри",
        "Name[ca@valencia]": "Controlador de jocs",
        "Name[ca]": "Controlador de jocs",
        "Name[cs]": "Herní ovladač",
        "Name[da]": "Spil-kontroller",
        "Name[de]": "Gamecontroller",
        "Name[el]": "Χειριστήριο παιχνιδιών",
        "Name[en_GB]": "Game Controller",
        "Name[eo]": "Ludstirilo",
        "Name[es]": "Mando de juego",
        "Name[et]": "Mängukontroller",
        "Name[eu]": "Joko kontrolatzailea",
        "Name[fi]": "Peliohjain",
        "Name[fr]": "Contrôleur de jeu",
        "Name[gl]": "Mando",
        "Name[he]": "בקר משחק",
        "Name[hu]": "Játékvezérlők",
        "Name[ia]": "Controlator de Joco",
        "Name[id]": "Pengendali Permainan",
        "Name[ie]": "Controlero de lude",
        "Name[is]": "Leikjastýring",
        "Name[it]": "Controller di gioco",
        "Name[ja]": "ゲームコントローラ",
        "Name[ka]": "სათამაშო კონტროლერი",
        "Name[ko]": "게임 컨트롤러",
        "Name[lt]": "Žaidimų valdiklis",
        "Name[lv]": "Spēļu kontrolieris",
        "Name[nl]": "Spelbesturing",
        "Name[nn]": "Spel­kontrollar",
        "Name[pa]": "ਖੇਡ ਕੰਟਰੋਲਰ",
        "Name[pl]": "Pad do gier",
        "Name[pt]": "Controlador de Jogos",
        "Name[pt_BR]": "Controlador de jogos",
        "Name[ro]": "Controlor pentru jocuri",
        "Name[ru]": "Игровой контроллер",
        "Name[sk]": "Herný ovládač",
        "Name[sl]": "Krmilnik iger",
        "Name[sv]": "Spelkontroll",
        "Name[ta]": "விளையாட்டு கட்டுப்படுத்தி",
        "Name[tr]": "Oyun Kumandası",
        "Name[uk]": "Ігровий контролер",
        "Name[vi]": "Thiết bị điều khiển trò chơi",
        "Name[x-test]": "xxGame Controllerxx",
        "Name[zh_CN]": "游戏控制器",
        "Name[zh_TW]": "遊戲控制器"
    },
    "Terminal": "false",
    "X-DocPath": "kcontrol/joystick/index.html",
    "X-KDE-Keywords": "joystick,gamepad,controller,hardware,games,gaming,pad,devices,joypad,analog sticks,calibrate,calibration,directional buttons,axis,videogames,button,buttons,inputs",
    "X-KDE-Keywords[ar]": "عصا التحكم,لوحة الألعاب,وحدة التحكم,الأجهزة,الألعاب,الألعاب,لوحة الألعاب,الأجهزة,لوحة الألعاب,العصي التناظرية,معايرة,معايرة,أزرار الاتجاه,المحور,ألعاب الفيديو,الزر,الأزرار,المدخلات",
    "X-KDE-Keywords[az]": "joystick,gamepad,controller,hardware,games,gaming,pad,devices,joypad,analog sticks,calibrate,calibration,directional buttons,axis,videogames,button,buttons,inputs,oyun dəstəyi,oyun paneli,idarəedici,oyunlar,oyun,lövhə, nizamlamaq,istiqamət düymələri,oxlar,video oyunlar,üymə,düymələr,daxiletmələr",
    "X-KDE-Keywords[bg]": "джойстик,геймпад,контролер,хардуер,игри,игри,пад,устройства,джойпад,аналогови стикове,калибриране,калибриране,бутони за посока,ос,видеоигри,бутон,бутони,входове",
    "X-KDE-Keywords[ca@valencia]": "palanca de control,comandament de joc,controlador,maquinari,jocs,jugar,teclat,dispositius,comandament de joc,palanca analògica,calibrar,calibratge,botons direccionals,eixos,videojocs,botó,botons,entrades",
    "X-KDE-Keywords[ca]": "palanca de control,comandament de joc,controlador,maquinari,jocs,jugar,teclat,dispositius,comandament de joc,palanca analògica,calibrar,calibratge,botons direccionals,eixos,videojocs,botó,botons,entrades",
    "X-KDE-Keywords[en_GB]": "joystick,gamepad,controller,hardware,games,gaming,pad,devices,joypad,analogue sticks,calibrate,calibration,directional buttons,axis,videogames,button,buttons,inputs",
    "X-KDE-Keywords[es]": "joystick,palanca de juegos,mando de juegos,controlador,hardware,juegos,gaming,pad,dispositivos,joypad,mando analógico,calibrar,calibración,botones de dirección,eje,videojuegos,botón,botones,entradas",
    "X-KDE-Keywords[eu]": "joko-palanka,joystick,joko-agintea,gamepad,kontrola,hardwarea,burdindegia,jokoak,joko,kuxina,pad,gailuak,joypad,joypad,makila analogikoak,kalibratu,kalibratzea,norabide-botoiak,ardatza,bideo-jokoak,botoia,botoiak,sarrerakoak",
    "X-KDE-Keywords[fi]": "peliohjain,joystick,ohjain,laitteet,laitteisto,pelit,pelaaminen,analoginen,kalibroi,kalibrointi,suuntapainikkeet,akseli,videopelit,painike,nappi,napit,syötteet",
    "X-KDE-Keywords[fr]": "joystick, contrôleur de jeu, contrôleur, matériel, jeux, jouer, pad, périphériques, périphérique de jeu, manettes analogues, calibration, boutons de direction, jeux vidéo, bouton, boutons, entrées",
    "X-KDE-Keywords[gl]": "joystick,mando,gamepad,controller,controlador,hardware,soporte físico,games,xogos,gaming,pad,devices,dispositivos,joypad,analog sticks,calibrate,calibrar,calibration,calibración,directional buttons,botóns direccionais,axis,eixe,videogames,videoxogos,button,botón,buttons,botóns,inputs,entradas",
    "X-KDE-Keywords[he]": "ג׳ויסטיק,ג'ויסטיק,בקר משחק,בקר,חומרה,משחקים,משחקיות,משחוק,משטח,התקנים,מכשירים,ג׳ויפד,ג'ויפד,משטח משחקים,משטח משחק,ידית אנלוגית,כיול,לכייל,מכויל,\nכפתורי כיוון,ציר,משחקי וידאו,כפתור,כפתורים,אמצעי קלט,קלטים,ערוצי קלט",
    "X-KDE-Keywords[hu]": "botkormány,gombkormány,kontroller,hardver,játékok,játék,tábla,eszközök,joypad,analóg karok,kalibrálás,kalibráció,iránygombok,tengely,videojátékok,gomb,gombok,bevitel",
    "X-KDE-Keywords[ia]": "joystick,gamepad,controllator,hardware,jocos,gìjocar,pad,dispositivos,joypad,bastones analogic,calibrar,calibration,buttones directional,axe,videojocos,button,buttones,entratas",
    "X-KDE-Keywords[id]": "joystick,gamepad,kontroler,perangkat keras,permainan,bermain game,pad,perangkat,peranti,joypad,stik analog,kalibrasi,kalibrasi,tombol arah,poros,permainan video,tombol,tombol-tombol,masukan",
    "X-KDE-Keywords[it]": "joystick,gamepad,controller,hardware,giochi,gioco,pad,dispositivi,joypad,stick analogici,calibrare,calibrazione,pulsanti direzionali,assi,videogiochi,pulsante,pulsanti,ingressi",
    "X-KDE-Keywords[ka]": "joystick,gamepad,controller,hardware,games,gaming,pad,devices,joypad,analog sticks,calibrate,calibration,directional buttons,axis,videogames,button,buttons,inputs,შეყვანა,ღილაკები,კალიბრაცია,მიმართულების ღილაკები,ჯოისტიკი",
    "X-KDE-Keywords[ko]": "joystick,gamepad,controller,hardware,games,gaming,pad,devices,joypad,analog sticks,calibrate,calibration,directional buttons,axis,videogames,button,buttons,inputs,조이스틱,게임패드,컨트롤러,하드웨어,게임,패드,장치,조이패드,아날로그 스틱,교정,보정,단추,축,입력",
    "X-KDE-Keywords[lv]": "kursorsvira,spēļu kontrolieris,kontrolieris,aparatūra,spēles,datorspēles,ierīces,spēļu vadierīce,spēļvadne,analogas sviras,kalibrēt,kalibrācija,virzientaustiņi,asis,poga,pogas,ievades",
    "X-KDE-Keywords[nl]": "joystick,gamepad,controller,hardware,spellen,games,gaming,pad,apparaten, joypad,analoge sticks,kalibreren,kalibratie,directionele knoppen,as, videogames,knop,knoppen,invoer",
    "X-KDE-Keywords[nn]": "joystick,styrespak,styrepinne,gamepad,kontrollar,handkontrollar,hardware,maskinvare,spel,speling,styrepute,einingar,joypad,analog styrespak,kalibrer,kalibrering,retningsknappar,akse,dataspel,spel,videospel,knapp,knappar,styring,inndata",
    "X-KDE-Keywords[pl]": "joystick,pad do kier,kontroler,sprzęt,gry,granie,pad,urządzenia,joypad,drążki analogowe,skalibruj,kalibracja,przyciski kierunkowe,osie,gry wideo,przycisk,przyciski,obsługa",
    "X-KDE-Keywords[pt_BR]": "joystick,gamepad,controlador,hardware,jogos,jogar,pad,dispositivos,joypad,controle analógico,calibrar,calibração,botões axiais, vídeo games,botão,botões,entradas",
    "X-KDE-Keywords[ru]": "joystick,gamepad,controller,hardware,games,gaming,pad,devices,joypad,analog sticks,calibrate,calibration,directional buttons,axis,videogames,button,buttons,inputs,джойстик,игровой контроллер,оборудование,игры,игра,калибровать,калибровка,кнопки направления,оси,кнопка,кнопки,ввод",
    "X-KDE-Keywords[sk]": "joystick,gamepad,ovládač,hardvér,hry,hranie,podložka,zariadenia,joypad,analógové ovládače,kalibrovať,kalibrácia,smerové tlačidlá,os,videohry,tlačidlo,tlačidlá,vstupy",
    "X-KDE-Keywords[sl]": "igralna palica,igralna ploščica,krmilnik,strojna oprema,igre,igračarstvo,podloga,naprave,igralna podlaga,analogne palice,kalibriraj,kalibracija,smerne tipke,osi,video igre,gumb,gumbi,vhodi",
    "X-KDE-Keywords[sv]": "styrspak,handkontroll,kontroll,maskinvara,spel,enheter,styrkontroll,analoga spakar,kalibrera,kalibrering,riktningsknappar,axel,videospel,knapp,knappar,ingångar",
    "X-KDE-Keywords[ta]": "joystick,gamepad,controller,hardware,games,gaming,pad,devices,joypad,analog sticks,calibrate,calibration,directional buttons,axis,videogames,button,buttons,inputs, விளையாட்டு, கட்டுப்படுத்தி, குச்சி, வன்பொருள், கேளிக்கை, பலகை, சாதனம், சாதனங்கள், அளதிருத்து, அளதிருத்தம், திசை, பட்டன், பொத்தான், உள்ளீடு, உள்ளீட்டு",
    "X-KDE-Keywords[tr]": "joystick,gamepad,oyun kolu,oyun çubuğu,denetim aygıtı,denetim cihazı,kontrol aygıtı,kontrol cihazı,donanım,oyunlar,oyun oynama,pad,ped,aygıtlar,cihazlar,joypad,analog çubuklar,kalibre etme,kalibrasyon,yön düğmeleri,eksen,video oyunları,düğme,düğmeler,girişler,girdi",
    "X-KDE-Keywords[uk]": "joystick,gamepad,controller,hardware,games,gaming,pad,devices,joypad,analog sticks,calibrate,calibration,directional buttons,axis,videogames,button,buttons,inputs,джойстик,ігрова панель,контролер,апаратне забезпечення,ігри,гра,панель,пристрої,джойпед,аналогові ручки,калібрувати,калібрування,кнопки напрямків,вісь,відеоігри,кнопка,кнопки,введення даних",
    "X-KDE-Keywords[vi]": "joystick,gamepad,controller,hardware,games,gaming,pad,devices,joypad,analog sticks,calibrate,calibration,directional buttons,axis,videogames,button,buttons,inputs,cần điều khiển,bàn điều khiển,thiết bị điều khiển,phần cứng,trò chơi,chơi trò chơi,thiết bị,cần tương tự,hiệu chỉnh,nút hướng,trục,trò chơi điện tử,nút,đầu vào",
    "X-KDE-Keywords[x-test]": "xxjoystickxx,xxgamepadxx,xxcontrollerxx,xxhardwarexx,xxgamesxx,xxgamingxx,xxpadxx,xxdevicesxx,xxjoypadxx,xxanalog sticksxx,xxcalibratexx,xxcalibrationxx,xxdirectional buttonsxx,xxaxisxx,xxvideogamesxx,xxbuttonxx,xxbuttonsxx,xxinputsxx",
    "X-KDE-Keywords[zh_CN]": "joystick,gamepad,controller,hardware,games,gaming,pad,devices,joypad,analog sticks,calibrate,calibration,directional buttons,axis,videogames,button,buttons,inputs,kongzhigan,yaogan,youxishoubing,shoubing,yingjian,youxi,shebei,moniyaogan,jiaozhun,fangxiangjian,shizijian,zhou,shoubingzhou,dianziyouxi,shipinyouxi,anjian,shuru,控制杆,摇杆,游戏手柄,手柄,硬件,游戏,设备,模拟摇杆,校准,方向键,十字键,轴,手柄轴,电子游戏,视频游戏,按键,输入",
    "X-KDE-Keywords[zh_TW]": "手把,搖桿,控制器,硬體,遊戲,裝置,矯正,校正,方向鍵,電玩,按鈕,按鍵,輸入",
    "X-KDE-System-Settings-Parent-Category": "input-devices",
    "X-KDE-Test-Module": "true",
    "X-KDE-Weight": 70
}
