{
    "KPlugin": {
        "BugReportUrl": "https://bugs.kde.org/enter_bug.cgi?product=systemsettings&component=kcm_touchscreen",
        "FormFactors": [
            "tablet",
            "handset",
            "desktop"
        ],
        "Icon": "preferences-desktop-touchscreen",
        "License": "GPL",
        "Name": "Touchscreen",
        "Name[ar]": "شاشة لمس",
        "Name[ast]": "Pantalla táctil",
        "Name[az]": "Toxunma ekranı",
        "Name[be]": "Сэнсарны экран",
        "Name[bg]": "Сензорен екран",
        "Name[ca@valencia]": "Pantalla tàctil",
        "Name[ca]": "Pantalla tàctil",
        "Name[cs]": "Dotyková obrazovka",
        "Name[da]": "Touchskærm",
        "Name[de]": "Touchscreen",
        "Name[el]": "Οθόνη αφής",
        "Name[en_GB]": "Touchscreen",
        "Name[eo]": "Tuŝekrano",
        "Name[es]": "Pantalla táctil",
        "Name[eu]": "Ukimen-pantaila",
        "Name[fi]": "Kosketusnäyttö",
        "Name[fr]": "Écran tactile",
        "Name[gl]": "Pantalla táctil",
        "Name[he]": "מסך מגע",
        "Name[hu]": "Érintőképernyő",
        "Name[ia]": "Schermo tactile",
        "Name[id]": "Layar Sentuh",
        "Name[is]": "Snertiskjár",
        "Name[it]": "Schermo tattile",
        "Name[ja]": "タッチスクリーン",
        "Name[ka]": "სენსორული ეკრანი",
        "Name[ko]": "터치스크린",
        "Name[lt]": "Jutiklinis ekranas",
        "Name[lv]": "Skārienekrāns",
        "Name[nl]": "Aanraakscherm",
        "Name[nn]": "Trykkskjerm",
        "Name[pa]": "ਟੱਚ-ਸਕਰੀਨ",
        "Name[pl]": "Ekran dotykowy",
        "Name[pt]": "Ecrã Táctil",
        "Name[pt_BR]": "Tela de toque",
        "Name[ro]": "Ecran tactil",
        "Name[ru]": "Сенсорный экран",
        "Name[sk]": "Dotyková obrazovka",
        "Name[sl]": "Zaslon na dotik",
        "Name[sv]": "Pekskärm",
        "Name[ta]": "தொடுதிரை",
        "Name[tr]": "Dokunmatik Ekran",
        "Name[uk]": "Сенсорний екран",
        "Name[vi]": "Màn hình cảm ứng",
        "Name[x-test]": "xxTouchscreenxx",
        "Name[zh_CN]": "触摸屏",
        "Name[zh_TW]": "觸控螢幕"
    },
    "X-KDE-Keywords": "touchscreen,touch,laptop,screen,display",
    "X-KDE-Keywords[ar]": "شاشة تعمل باللمس,لمس,كمبيوتر محمول,شاشة,عرض",
    "X-KDE-Keywords[bg]": "сензорен екран, сензорен, лаптоп, екран, дисплей",
    "X-KDE-Keywords[ca@valencia]": "pantalla tàctil,tàctil,portàtil,pantalla",
    "X-KDE-Keywords[ca]": "pantalla tàctil,tàctil,portàtil,pantalla",
    "X-KDE-Keywords[en_GB]": "touchscreen,touch,laptop,screen,display",
    "X-KDE-Keywords[es]": "pantalla táctil,tocar,táctil,portátil,pantalla",
    "X-KDE-Keywords[eu]": "ukimen-pantaila,ukitu,magalekoa,pantaila,bistaratzailea",
    "X-KDE-Keywords[fr]": "écran tactile, tactile, ordinateur portable, écran, affichage",
    "X-KDE-Keywords[gl]": "pantalla táctil,touch,toque,tocar,laptop,portátil,screen,pantalla,display,monitor",
    "X-KDE-Keywords[he]": "מסך מגע,מגע,מחשב נייד,לפטופ,צג,תצוגה,מסך",
    "X-KDE-Keywords[hu]": "érintőképernyő,érintő,laptop,képernyő,kijelző",
    "X-KDE-Keywords[ia]": "touchscreen,touch,laptop,screen,display",
    "X-KDE-Keywords[id]": "layar sentuh,sentuh,laptop,layar,display",
    "X-KDE-Keywords[it]": "schermo tattile,toccare,laptop,schermo,monitor",
    "X-KDE-Keywords[ka]": "touchscreen,touch,laptop,screen,display,სენსორული ეკრანი,ლეპტოპის ეკრანი,ეკრანი",
    "X-KDE-Keywords[lt]": "jutiklinis ekranas,jutiklinis monitorius,lietimui,lietimo,liečiamasis,liečiamas,lieciamasis,lieciamas,laptopas,skreitinukas,nešiojamasis kompiuteris,nesiojamasis kompiuteris,nešiojamas kompiuteris,nesiojamas kompiuteris,ekranas,monitorius,vaizduoklis",
    "X-KDE-Keywords[lv]": "skārienekrāns,skāriens,portatīvais dators,ekrāns,displejs",
    "X-KDE-Keywords[nl]": "aanraakscherm,aanraking,laptop,scherm",
    "X-KDE-Keywords[pa]": "ਟੱਚ-ਸਕਰੀਨ,ਟੱਚ,ਲੈਪਟਾਪ,ਸਕਰੀਨ,ਸਕ੍ਰੀਨ,ਡਿਸਪਲੇਅ",
    "X-KDE-Keywords[pl]": "ekran dotykowy,dotyk,laptop,ekran,wyświetlacz",
    "X-KDE-Keywords[ru]": "touchscreen,touch,laptop,screen,display,сенсорный экран,касание,ноутбук,экран,дисплей",
    "X-KDE-Keywords[sl]": "zaslon na dotik,dotik,prenosni računalnik,zaslon,prikaz",
    "X-KDE-Keywords[sv]": "pekskärm,peka,bärbar dator,skärm,bildskärm",
    "X-KDE-Keywords[ta]": "touchscreen,touch,laptop,screen,display, தொடுதிரை, தொடு, மடிக்கணினி, காட்சிக் கருவி, திரை",
    "X-KDE-Keywords[tr]": "dokunmatik ekran,dokun,dizüstü,laptop,ekran,görüntü",
    "X-KDE-Keywords[uk]": "touchscreen,touch,laptop,screen,display,сенсорний,екран,панель,ноутбук,дисплей",
    "X-KDE-Keywords[x-test]": "xxtouchscreenxx,xxtouchxx,xxlaptopxx,xxscreenxx,xxdisplayxx",
    "X-KDE-Keywords[zh_CN]": "touchscreen,touch,laptop,screen,display,chumoping,chumo,chukongping,chukong,bijiben,bijibendiannao,pingmu,xianshiping,xianshiqi,触摸屏,触摸,触控屏,触控,笔记本,笔记本电脑,屏幕,显示屏,显示器",
    "X-KDE-Keywords[zh_TW]": "觸控螢幕,觸控,筆電,筆記型電腦,螢幕,顯示器",
    "X-KDE-OnlyShowOnQtPlatforms": [
        "wayland"
    ],
    "X-KDE-System-Settings-Parent-Category": "hardware-input-touchscreen",
    "X-KDE-Weight": 10
}
